{
  "name": "dialog-codeless",
  "version": "1.0.0",
  "title": "Dialog Semiconductor Codeless",
  "description": "App supporting the DA1458x CodeLess implementation from Dialog Semiconductor.",
  "tags": [
    {
      "label": "dialog",
      "type": "vendor"
    },
    {
      "label": "ble",
      "type": "comm"
    }
  ],
  "libraries": [],
  "plugins": [
    {
      "name": "cordova-plugin-ble",
      "version": "2.0.0"
    }
  ],
  "index-file": "index.html",
  "app-dir": "app",
  "uuid": "9a399af7-d2ce-461a-af4e-32f476efa9ea",
  "icon": "app-icon.png",
  "doc-url": "http://evothings.com/2.2/doc/examples/dialog-codeless.html",
  "long-description": "App supporting the DA1458x CodeLess implementation from Dialog Semiconductor.",
  "cordova-id": "com.evothings.examples.dialogcodeless",
  "author-name": "Evothings",
  "author-email": "build@evothings.com",
  "author-url": "https://evothings.com"
}